…
``` r
smoking_out %>% plot_mspe_ratio()
```

<img src="README_files/figure-gfm/unnamed-chunk-11-1.png" style="display: block; margin: auto;" />

For more specific information, there is a significance table that can be
extracted with one of the many `grab_` prefix functions.

``` r
smoking_out %>% grab_significance()
```

    ## # A tibble: 39 × 8
    ##    unit_name      type    pre_mspe post_mspe mspe_ratio  rank fishers_…¹ z_score
    ##    <chr>          <chr>      <dbl>     <dbl>      <dbl> <int>      <dbl>   <dbl>
    ##  1 California     Treated     3.17     392.      124.       1     0.0256  5.32  
    ##  2 Georgia        Donor       3.79     179.       47.2      2     0.0513  1.70  
    ##  3 Indiana        Donor      25.2      770.       30.6      3     0.0769  0.916 
    ##  4 West Virginia  Donor       9.52     284.       29.8      4     0.103   0.881 
    ##  5 Wisconsin      Donor      11.1      268.       24.1      5     0.128   0.607 
    ##  6 Missouri       Donor       3.03      67.8      22.4      6     0.154   0.528 
    ##  7 Texas          Donor      14.4      277.       19.3      7     0.179   0.383 
    ##  8 South Carolina Donor      12.6      234.       18.6      8     0.205   0.351 
    ##  9 Virginia       Donor       9.81      96.4       9.83     9     0.231  -0.0646
    ## 10 Nebraska       Donor       6.30      52.9       8.40    10     0.256  -0.132 
    ## # … with 29 more rows, and abbreviated variable name ¹​fishers_exact_pvalue
### Accessing Data

In addition to the main data pipeline for generating the synthetic
control and the `plot_` prefix functions for visualizing the output,
there are a number of `grab_` prefix functions that offer easy access to
the data contained within a synth pipeline object.

At its core, a synth pipeline is simply a nested tibble data frame,
where each component of the synthetic control pipeline is accessible.

``` r
smoking_out
```

    ## # A tibble: 78 × 11
    ##    .id       .plac…¹ .type .outcome .predi…² .synth…³ .unit_…⁴ .predi…⁵ .origi…⁶
    ##    <chr>       <dbl> <chr> <list>   <list>   <list>   <list>   <list>   <list>  
    ##  1 Californ…       0 trea… <tibble> <tibble> <tibble> <tibble> <tibble> <tibble>
    ##  2 Californ…       0 cont… <tibble> <tibble> <tibble> <tibble> <tibble> <tibble>
    ##  3 Alabama         1 trea… <tibble> <tibble> <tibble> <tibble> <tibble> <tibble>
    ##  4 Alabama         1 cont… <tibble> <tibble> <tibble> <tibble> <tibble> <tibble>
    ##  5 Arkansas        1 trea… <tibble> <tibble> <tibble> <tibble> <tibble> <tibble>
    ##  6 Arkansas        1 cont… <tibble> <tibble> <tibble> <tibble> <tibble> <tibble>
    ##  7 Colorado        1 trea… <tibble> <tibble> <tibble> <tibble> <tibble> <tibble>
    ##  8 Colorado        1 cont… <tibble> <tibble> <tibble> <tibble> <tibble> <tibble>
    ##  9 Connecti…       1 trea… <tibble> <tibble> <tibble> <tibble> <tibble> <tibble>
    ## 10 Connecti…       1 cont… <tibble> <tibble> <tibble> <tibble> <tibble> <tibble>
    ## # … with 68 more rows, 2 more variables: .meta <list>, .loss <list>, and
    ## #   abbreviated variable names ¹​.placebo, ²​.predictors, ³​.synthetic_control,
    ## #   ⁴​.unit_weights, ⁵​.predictor_weights, ⁶​.original_data
…
``` r
smoking_out %>% grab_synthetic_control()
```

    ## # A tibble: 31 × 3
    ##    time_unit real_y synth_y
    ##        <dbl>  <dbl>   <dbl>
    ##  1      1970   123     117.
    ##  2      1971   121     119.
    ##  3      1972   124.    124.
    ##  4      1973   124.    125.
    ##  5      1974   127.    127.
    ##  6      1975   127.    127.
    ##  7      1976   128     128.
    ##  8      1977   126.    126.
    ##  9      1978   126.    125.
    ## 10      1979   122.    123.
    ## # … with 21 more rows

Note that most all the `grab_` functions allow for extraction of the
placebo units as well.

``` r
smoking_out %>% grab_synthetic_control(placebo = T)
```

    ## # A tibble: 1,209 × 5
    ##    .id        .placebo time_unit real_y synth_y
    ##    <chr>         <dbl>     <dbl>  <dbl>   <dbl>
    ##  1 California        0      1970   123     117.
    ##  2 California        0      1971   121     119.
    ##  3 California        0      1972   124.    124.
    ##  4 California        0      1973   124.    125.
    ##  5 California        0      1974   127.    127.
    ##  6 California        0      1975   127.    127.
    ##  7 California        0      1976   128     128.
    ##  8 California        0      1977   126.    126.
    ##  9 California        0      1978   126.    125.
    ## 10 California        0      1979   122.    123.
    ## # … with 1,199 more rows
#### But say I really want to `unnest()`…

In the current implementation, you can unpack an entire synth pipeline
using `unnest()`. The `grab_` function is meant to streamline any
specific extraction needs. The entire method is built on top of a
tidyverse infrastructure, so one can side-step most of the package’s
functionality and interact with the synth pipeline output as one would
any nested `tbl_df` object.

``` r
smoking_out %>% 
  tidyr::unnest(cols = c(.outcome)) 
```

    ## # A tibble: 1,482 × 50
    ##    .id     .plac…¹ .type time_…² Calif…³ Alabama Arkan…⁴ Color…⁵ Conne…⁶ Delaw…⁷
    ##    <chr>     <dbl> <chr>   <dbl>   <dbl>   <dbl>   <dbl>   <dbl>   <dbl>   <dbl>
    ##  1 Califo…       0 trea…    1970    123       NA      NA      NA      NA      NA
    ##  2 Califo…       0 trea…    1971    121       NA      NA      NA      NA      NA
    ##  3 Califo…       0 trea…    1972    124.      NA      NA      NA      NA      NA
    ##  4 Califo…       0 trea…    1973    124.      NA      NA      NA      NA      NA
    ##  5 Califo…       0 trea…    1974    127.      NA      NA      NA      NA      NA
    ##  6 Califo…       0 trea…    1975    127.      NA      NA      NA      NA      NA
    ##  7 Califo…       0 trea…    1976    128       NA      NA      NA      NA      NA
    ##  8 Califo…       0 trea…    1977    126.      NA      NA      NA      NA      NA
    ##  9 Califo…       0 trea…    1978    126.      NA      NA      NA      NA      NA
    ## 10 Califo…       0 trea…    1979    122.      NA      NA      NA      NA      NA
    ## # … with 1,472 more rows, 40 more variables: Georgia <dbl>, Idaho <dbl>,
    ## #   Illinois <dbl>, Indiana <dbl>, Iowa <dbl>, Kansas <dbl>, Kentucky <dbl>,
    ## #   Louisiana <dbl>, Maine <dbl>, Minnesota <dbl>, Mississippi <dbl>,
    ## #   Missouri <dbl>, Montana <dbl>, Nebraska <dbl>, Nevada <dbl>,
    ## #   `New Hampshire` <dbl>, `New Mexico` <dbl>, `North Carolina` <dbl>,
    ## #   `North Dakota` <dbl>, Ohio <dbl>, Oklahoma <dbl>, Pennsylvania <dbl>,
    ## #   `Rhode Island` <dbl>, `South Carolina` <dbl>, `South Dakota` <dbl>, …
…
